{
   "Actors":[
      {
         "id":"manualBrightness",
         "name":"Manual brightness",
         "weight":4,
         "stage":5
      },
      {
         "id":"notificationLed",
         "name":"Notification LED",
         "weight":1,
         "stage":5
      },
      {
         "id":"torchlight",
         "name":"Torchlight",
         "weight":1,
         "stage":5
      },
      {
         "id":"vibration",
         "name":"Vibration",
         "weight":1,
         "stage":5
      }
   ],
   "Camera":[
      {
         "id":"flashlight",
         "name":"Flashlight",
         "weight":1,
         "stage":5
      },
      {
         "id":"photo",
         "name":"Photo",
         "weight":4,
         "stage":4
      },
      {
         "id":"video",
         "name":"Video",
         "weight":2,
         "stage":4
      },
      {
         "id":"switchCamera",
         "name":"Switching between cameras",
         "weight":2,
         "stage":4
      }
   ],
   "Cellular":[
      {
         "id":"carrierInfo",
         "name":"Carrier info, signal strength",
         "weight":3,
         "stage":3
      },
      {
         "id":"dataConnection",
         "name":"Data connection",
         "weight":3,
         "stage":3
      },
      {
         "id":"dualSim",
         "name":"Dual SIM functionality",
         "weight":1,
         "default":"x",
         "stage":5
      },
      {
         "id":"calls",
         "name":"Incoming, outgoing calls",
         "weight":4,
         "stage":3
      },
      {
         "id":"mms",
         "name":"MMS in, out",
         "weight":2,
         "stage":4
      },
      {
         "id":"pinUnlock",
         "name":"PIN unlock",
         "weight":4,
         "stage":4
      },
      {
         "id":"sms",
         "name":"SMS in, out",
         "weight":4,
         "stage":3
      },
      {
         "id":"audioRoutings",
         "name":"Change audio routings",
         "weight":4,
         "stage":4
      },
      {
         "id":"voiceCall",
         "name":"Voice in calls",
         "weight":4,
         "stage":3
      },
      {
         "id":"volumeControl",
         "name":"Volume control in calls",
         "weight":1,
         "default":"x",
         "stage":5
      }
   ],
   "Endurance":[
      {
         "id":"batteryLifetimeTest",
         "name":"24+ hours battery lifetime",
         "weight":1,
         "stage":5
      },
      {
         "id":"noRebootTest",
         "name":"7+ days stability",
         "weight":2,
         "stage":5
      }
   ],
   "GPU":[
      {
         "id":"uiBoot",
         "name":"Boot into UI",
         "weight":5,
         "stage":2
      },
      {
         "id":"videoAcceleration",
         "name":"Hardware video playback",
         "weight":2,
         "stage":5
      }
   ],
   "Misc":[
      {
         "id":"anboxPatches",
         "name":"Anbox patches (deprecated)",
         "weight":1,
         "stage":6
      },
      {
         "id":"waydroid",
         "name":"Waydroid",
         "weight":1,
         "stage":6,
         "conditions": [
            {
               "field": "portType",
               "value": "Legacy",
               "global": "x"
            },
            {
               "field": "portType",
               "value": "Native",
               "global": "x"
            },
            {
               "field": "portType",
               "value": "Halium 5.1",
               "global": "x"
            },
            {
               "field": "portType",
               "value": "Halium 7.1",
               "global": "x"
            }
         ]
      },
      {
         "id":"apparmorPatches",
         "name":"AppArmor patches",
         "weight":4,
         "stage":2
      },
      {
         "id":"batteryPercentage",
         "name":"Battery percentage",
         "weight":1,
         "stage":4
      },
      {
         "id":"offlineCharging",
         "name":"Offline charging",
         "weight":1,
         "stage":5
      },
      {
         "id":"onlineCharging",
         "name":"Online charging",
         "weight":5,
         "stage":3
      },
      {
         "id":"recoveryImage",
         "name":"Recovery image",
         "weight":3,
         "stage":5
      },
      {
         "id":"factoryReset",
         "name":"Reset to factory defaults",
         "weight":1,
         "stage":5
      },
      {
         "id":"rtcTime",
         "name":"RTC time",
         "weight":1,
         "stage":4
      },
      {
         "id":"sdCard",
         "name":"SD card detection and access",
         "weight":1,
         "default":"x",
         "stage":4
      },
      {
         "id":"shutdown",
         "name":"Shutdown / Reboot",
         "weight":1,
         "stage":4
      },
      {
         "id":"wirelessCharging",
         "name":"Wireless charging",
         "weight":1,
         "default":"x",
         "stage":6
      },
      {
         "id":"wirelessExternalMonitor",
         "name":"Wireless External monitor",
         "weight":1,
         "stage":6
      }
   ],
   "Network":[
      {
         "id":"bluetooth",
         "name":"Bluetooth",
         "weight":2,
         "stage":5
      },
      {
         "id":"flightMode",
         "name":"Flight mode",
         "weight":1,
         "stage":5
      },
      {
         "id":"fmRadio",
         "name":"FM radio",
         "weight":1,
         "default":"x",
         "stage":6
      },
      {
         "id":"hotspot",
         "name":"Hotspot",
         "weight":1,
         "global":"+-",
         "bugTracker":"https://github.com/ubports/ubuntu-touch/issues/532",
         "stage":5
      },
      {
         "id":"nfc",
         "name":"NFC",
         "weight":1,
         "default":"x",
         "stage":6
      },
      {
         "id":"wifi",
         "name":"WiFi",
         "weight":4,
         "stage":4
      }
   ],
   "Sensors":[
      {
         "id":"autoBrightness",
         "name":"Automatic brightness",
         "weight":1,
         "stage":5
      },
      {
         "id":"fingerprint",
         "name":"Fingerprint reader",
         "weight":1,
         "default":"x",
         "stage":6
      },
      {
         "id":"gps",
         "name":"GPS",
         "weight":2,
         "stage":5
      },
      {
         "id":"proximity",
         "name":"Proximity",
         "weight":1,
         "stage":5
      },
      {
         "id":"rotation",
         "name":"Rotation",
         "weight":3,
         "stage":4
      },
      {
         "id":"touchscreen",
         "name":"Touchscreen",
         "weight":5,
         "stage":2
      }
   ],
   "Sound":[
      {
         "id":"earphones",
         "name":"Earphones",
         "weight":2,
         "stage":4
      },
      {
         "id":"loudspeaker",
         "name":"Loudspeaker",
         "weight":4,
         "stage":4
      },
      {
         "id":"microphone",
         "name":"Microphone",
         "weight":4,
         "stage":4
      },
      {
         "id":"volumeControl",
         "name":"Volume control",
         "weight":1,
         "stage":4
      }
   ],
   "USB":[
      {
         "id":"mtp",
         "name":"MTP access",
         "weight":1,
         "stage":5
      },
      {
         "id":"adb",
         "name":"ADB access",
         "weight":1,
         "stage":6
      },
      {
         "id":"wiredExternalMonitor",
         "name":"Wired External monitor",
         "weight":1,
         "default":"x",
         "stage":6
      }
   ]
}
